Assignment 9
…
Checking E-BFMI - sampler transitions HMC potential energy.
E-BFMI satisfactory.

Effective sample size satisfactory.

Split R-hat values satisfactory all parameters.

Processing complete.

fit_separate_rest_hours$summary(variables = c("int_player", "sd_player", "beta_rest", "lp__"))

# A tibble: 102 x 10
   variable      mean  median     sd    mad     q5   q95  rhat ess_bulk ess_tail
   <chr>        <dbl>   <dbl>  <dbl>  <dbl>  <dbl> <dbl> <dbl>    <dbl>    <dbl>
 1 int_player~  3.39   3.39    0.718  0.707   2.18  4.58  1.01     546.    297. 
 2 int_player~  9.00   9.00    0.612  0.663   8.04 10.0   1.00     820.   2039. 
 3 int_player~  8.59   8.57    0.772  0.727   7.33  9.91  1.02     505.     92.8
 4 int_player~ 10.7   10.8     0.937  0.903   9.18 12.4   1.01     856.    191. 
 5 int_player~  5.64   5.66    0.835  0.780   4.30  6.98  1.01     317.    231. 
 6 int_player~  0.812  0.0340 23.1   10.9   -37.9  37.7   1.01     371.    174. 
 7 int_player~  5.25   5.25    0.825  0.821   3.86  6.58  1.01    1570.   1054. 
 8 int_player~  4.55   4.54    1.37   1.22    2.39  6.84  1.00     700.    597. 
 9 int_player~ 19.8   19.8     0.888  0.856  18.3  21.3   1.01     747.   1533. 
10 int_player~  6.01   6.03    1.18   1.03    4.06  7.90  1.01    1002.   1636. 
# ... with 92 more rows
…
